<?xml version="1.0" encoding="UTF-8"?>
<svg width="274px" height="167px" viewBox="0 0 274 167" version="1.1" xmlns="http://www.w3.org/2000/svg" xmlns:xlink="http://www.w3.org/1999/xlink">
    <title>e</title>
    <g id="Welcome" stroke="none" stroke-width="1" fill="none" fill-rule="evenodd" stroke-dasharray="8,13">
        <g id="Spaitial-Studio-Landing-Page-Design-Version-1" transform="translate(-666.000000, -1542.000000)" stroke-width="4">
            <g id="e" transform="translate(803.000000, 1625.500000) scale(-1, 1) translate(-803.000000, -1625.500000) translate(668.000000, 1544.000000)">
                <path d="M249.321315,163 L134.678685,163 C123.258537,163 114,153.672222 114,142.166667 C114,130.658333 123.258537,121.333333 134.678685,121.333333 L228.64263,121.333333 L228.64263,20.8333333 C228.64263,9.32777778 237.901166,0 249.321315,0 C260.741463,0 270,9.32777778 270,20.8333333 L270,142.166667 C270,153.672222 260.741463,163 249.321315,163" id="Fill-5" stroke="#FF1E59"></path>
                <path d="M61.7163588,163 L20.2836412,163 C9.08166227,163 0,153.671904 0,142.165957 L0,20.8284882 C0.00270448549,9.32254055 9.08977573,-0.00277725199 20.2917546,0 C31.4883245,0.00555636535 40.5618734,9.32809629 40.5672823,20.8284882 L40.5672823,121.331913 L61.7163588,121.331913 C72.9183377,121.331913 82,130.657231 82,142.165957 C82,153.671904 72.9183377,163 61.7163588,163" id="Fill-7" stroke="#E1E8EF"></path>
            </g>
        </g>
    </g>
</svg>