<?xml version="1.0" encoding="UTF-8"?>
<svg width="116px" height="23px" viewBox="0 0 116 23" version="1.1" xmlns="http://www.w3.org/2000/svg" xmlns:xlink="http://www.w3.org/1999/xlink">
    <title>hh</title>
    <g id="Welcome" stroke="none" stroke-width="1" fill="none" fill-rule="evenodd">
        <g id="Spaitial-Studio-Landing-Page-Design-Version-1" transform="translate(-288.000000, -863.000000)" fill="#7B8EA7">
            <path d="M310.94126,863 L320.601461,881.086532 L330.252212,863 L331.261354,863 L333.983896,882.340112 C334.255454,884.269446 334.456884,884.820963 335,886 L330.025417,886 C330.252212,884.864324 330.252212,883.268238 330.069682,881.962528 L328.577108,871.127076 L320.435343,885.989769 L318.8806,885.989769 L310.600072,870.455707 L308.993106,882.203694 C308.817041,883.557151 308.765813,885.275038 308.913528,886 L306,886 C306.561021,884.820963 306.701276,884.315243 306.965374,882.381524 L309.598391,863 L310.94126,863 Z M304.226377,863 L304.254446,865.334202 C303.949626,865.209964 303.706361,865.105702 303.481316,865.007287 C302.882017,864.783172 302.115781,864.575623 301.323938,864.581469 L292.429002,864.581469 L292.429002,873.586977 L302.863797,873.586977 L302.351167,875.355533 L292.429002,875.355533 L292.429002,884.370297 L301.840015,884.370297 C303.426655,884.395632 305,883.508918 305,883.508918 L304.957158,883.706236 L304.974393,883.706236 L304.625746,886 L288,886 C288.601515,884.611951 288.642772,883.753587 288.643688,882.794647 L288.643688,866.211301 C288.642772,865.263093 288.601515,864.345844 288,863 L304.226377,863 Z M370.682034,863 L379.319709,882.24454 C380.241466,884.124219 380.67603,884.712776 382,886 L382,886 L376.996242,886 L373.233888,877.576525 L365.662825,877.576525 L361.950686,886 L359,886 C359.936243,884.816065 360.252509,884.272332 360.918839,882.79753 L360.918839,882.79753 L369.69316,863 L370.682034,863 Z M346.683697,863 L355.320102,882.24454 C356.241725,884.124219 356.676224,884.712776 358,886 L358,886 L352.996977,886 L349.235176,877.576525 L341.667639,877.576525 L337.953632,886 L335,886 C335.939485,884.816065 336.255704,884.272332 336.921937,882.79753 L336.921937,882.79753 L345.693038,863 L346.683697,863 Z M389.312763,863.350618 C393.165692,863.363725 399.7145,863.730878 399.7145,869.558546 C399.7145,872.993212 396.8815,874.844233 393.559,875.313337 L393.559,875.313337 L392.57,875.408212 C392.57,875.408212 395.014558,877.710494 397.62595,880.169751 L398.149778,880.663059 C400.59839,882.969001 403.060057,885.287099 403.682904,885.873138 L403.8175,885.999712 L399.053,885.999712 C396.707,883.939296 393.673,881.202775 389.87,876.865837 C388.786,875.637254 388.018,875.482483 387.524,875.45565 L387.524,875.45565 L387.524161,882.630221 C387.526584,883.658047 387.565344,884.522681 388.1855,885.985337 L388.1855,885.985337 L383.0255,885.985337 C383.635375,884.620192 383.678305,883.77599 383.679508,882.833836 L383.679508,866.511375 C383.678305,865.57834 383.635375,864.676856 383.0255,863.352379 L383.0255,863.352379 L388.247006,863.352201 C388.408071,863.351869 388.578187,863.351146 388.756198,863.350669 Z M369.419385,869.102866 L366.393374,875.973097 L372.506718,875.973097 L369.419385,869.102866 Z M345.423648,869.102866 L342.39615,875.973097 L348.507147,875.973097 L345.423648,869.102866 Z M395.7725,869.557587 C395.6925,867.934171 394.9335,864.402712 387.524,864.686858 L387.524,864.686858 L387.524,874.332004 C387.524,874.332004 391.6695,874.546671 392.8335,874.060317 C392.9045,874.031087 392.9405,874.018629 392.9405,874.018629 L392.9405,874.018629 L392.9305,874.027733 C395.11,873.231358 395.8435,871.238983 395.7725,869.557587 Z" id="hh"></path>
        </g>
    </g>
</svg>